hello\Greeting.class
hello\Application.class
user\User.class
question\Question.class
group\GroupController.class
main\Application.class
user\UserController.class
question\QuestionController.class
hello\GreetingController.class
question\QuestionMC.class
hibernate\Question.class
question\QuestionTF.class
question\QuestionControllerTF.class
group\Group.class
hibernate\Answer.class
group\GroupsList.class
user\UsersList.class
main\mainPageController.class
